<?xml version="1.0" encoding="UTF-8"?>
<svg width="88px" height="88px" viewBox="0 0 88 88" version="1.1" xmlns="http://www.w3.org/2000/svg" xmlns:xlink="http://www.w3.org/1999/xlink">
    <!-- Generator: Sketch 48.2 (47327) - http://www.bohemiancoding.com/sketch -->
    <title>icon-error</title>
    <desc>Created with Sketch.</desc>
    <defs></defs>
    <g id="Thanks-Modal-Error" stroke="none" stroke-width="1" fill="none" fill-rule="evenodd" transform="translate(-168.000000, -27.000000)">
        <g id="icon-error" transform="translate(168.000000, 27.000000)" fill="#D32B2B">
            <path d="M44,0 C68.3006841,0 88,19.6993159 88,44 C88,68.3006841 68.3006841,88 44,88 C19.6993159,88 0,68.3006841 0,44 C0,19.6993159 19.6993159,0 44,0 Z M29.5358162,20.0726666 L44.0043859,34.7451811 L58.7465268,20.2086298 C63.9169667,15.1100091 73.0467872,24.3681174 67.875799,29.4672863 L53.1336581,44.0038377 L67.6702095,58.7459785 C72.7688301,63.9164185 63.51127,73.046239 58.4121011,67.8752508 L43.8750016,53.1331099 L29.202487,67.6011314 C24.0309506,72.7003003 14.9016784,63.442192 20.0732148,58.343023 L34.7457293,43.8744533 L20.2777079,29.2019388 C15.1785389,24.0304023 24.4366473,14.9011301 29.5358162,20.0726666 Z" id="Shape"></path>
        </g>
    </g>
</svg>