<?xml version="1.0" encoding="UTF-8"?>
<svg width="40px" height="44px" viewBox="0 0 40 44" version="1.1" xmlns="http://www.w3.org/2000/svg" xmlns:xlink="http://www.w3.org/1999/xlink">
    <!-- Generator: Sketch 48.2 (47327) - http://www.bohemiancoding.com/sketch -->
    <title>icon-discount</title>
    <desc>Created with Sketch.</desc>
    <defs></defs>
    <g id="Mobile-Portrait" stroke="none" stroke-width="1" fill="none" fill-rule="evenodd" transform="translate(-15.000000, -518.000000)">
        <g id="discount" transform="translate(15.000000, 518.000000)" fill="#000000" fill-rule="nonzero">
            <g id="icon-discount">
                <path d="M26.2051282,23.025641 C26.2051282,22.974359 26.2051282,22.8717949 26.1538462,22.7692308 L25.5897436,22.2051282 C25.4358974,22.0512821 25.3333333,22.0512821 25.1794872,22.1025641 L14.8717949,24.8205128 C14.7179487,24.8717949 14.6153846,24.8717949 14.6153846,24.9230769 C14.6153846,24.974359 14.5641026,25.1794872 14.5641026,25.1794872 L14.6153846,25.1282051 L15.2307692,25.7435897 C15.4358974,25.9487179 15.5897436,25.9487179 15.7948718,25.8974359 L26.0512821,23.2307692 C26.1538462,23.1282051 26.2051282,23.0769231 26.2051282,23.025641 Z" id="Shape"></path>
                <path d="M23.5897436,25.6410256 C23.025641,25.0769231 22.3589744,24.7692308 21.6923077,24.8205128 C21.0769231,24.8717949 20.4102564,25.2307692 19.7948718,25.7948718 C18.5641026,27.025641 18.5128205,28.4102564 19.6410256,29.5384615 C20.7692308,30.6666667 22.2051282,30.6153846 23.4358974,29.3846154 C24.6666667,28.1538462 24.7179487,26.7692308 23.5897436,25.6410256 Z M22.2051282,28.2564103 C21.8974359,28.5641026 21.5897436,28.7692308 21.3333333,28.8717949 C21.025641,28.974359 20.7692308,28.8717949 20.5641026,28.6666667 C20.1538462,28.2564103 20.2564103,27.6410256 20.974359,26.974359 C21.2820513,26.6666667 21.5897436,26.4615385 21.8974359,26.3589744 C22.2051282,26.2564103 22.4615385,26.3589744 22.6666667,26.5641026 C22.9230769,26.8205128 22.974359,27.0769231 22.8717949,27.3846154 C22.7692308,27.6410256 22.5641026,27.9487179 22.2051282,28.2564103 Z" id="Shape"></path>
                <path d="M21.0769231,22.2051282 C22.3589744,20.9230769 22.4102564,19.5897436 21.2820513,18.4615385 C20.7179487,17.8974359 20.0512821,17.5897436 19.3846154,17.6410256 C18.7692308,17.6923077 18.1025641,18.0512821 17.4871795,18.6153846 C16.2564103,19.8461538 16.2051282,21.2307692 17.3333333,22.3589744 C18.4615385,23.4871795 19.8461538,23.4358974 21.0769231,22.2051282 Z M18.2564103,21.4358974 C17.8461538,21.025641 17.9487179,20.4102564 18.6666667,19.7435897 C18.974359,19.4358974 19.2820513,19.2307692 19.5897436,19.1282051 C19.8974359,19.025641 20.1538462,19.1282051 20.3589744,19.3333333 C20.7692308,19.7435897 20.6666667,20.3589744 19.9487179,21.025641 C19.6410256,21.3333333 19.3333333,21.5384615 19.0769231,21.6410256 C18.7179487,21.7435897 18.4615385,21.6923077 18.2564103,21.4358974 Z" id="Shape"></path>
                <path d="M39.4358974,29.1794872 C39.7948718,28.8205128 39.7948718,28.2051282 39.4358974,27.7948718 L18.5641026,6.92307692 C18.3589744,6.71794872 18.1025641,6.61538462 17.7948718,6.66666667 L10.7692308,7.12820513 C10.2051282,5.8974359 9.02564103,5.33333333 8,4.87179487 C6.30769231,4.05128205 5.02564103,3.43589744 5.79487179,0.512820513 C5.84615385,0.307692308 5.74358974,0.102564103 5.53846154,0.0512820513 C5.33333333,1.76247905e-15 5.12820513,0.102564103 5.07692308,0.307692308 C4.15384615,3.79487179 6.05128205,4.66666667 7.69230769,5.48717949 C8.61538462,5.94871795 9.48717949,6.35897436 9.94871795,7.17948718 L4.82051282,7.53846154 C4.35897436,7.58974359 3.94871795,7.94871795 3.8974359,8.46153846 L3.58974359,13.025641 C3.33333333,12.5641026 3.12820513,11.9487179 2.92307692,11.3333333 C2.46153846,9.94871795 2,8.41025641 0.358974359,8.41025641 C0.153846154,8.41025641 0,8.56410256 0,8.76923077 C0,8.97435897 0.153846154,9.12820513 0.358974359,9.12820513 C1.38461538,9.12820513 1.74358974,10.0512821 2.25641026,11.5384615 C2.51282051,12.4102564 2.82051282,13.3333333 3.43589744,13.8974359 C3.48717949,13.9487179 3.53846154,13.9487179 3.53846154,14 L3.07692308,21.4358974 C3.07692308,21.6923077 3.17948718,22 3.33333333,22.2051282 L24.2051282,43.025641 C24.4102564,43.2307692 24.6153846,43.3333333 24.8717949,43.3333333 C25.1282051,43.3333333 25.3846154,43.2307692 25.5384615,43.025641 L39.4358974,29.1794872 Z M5.02564103,21.1282051 L5.43589744,14.4615385 C5.48717949,14.4615385 5.48717949,14 5.48717949,14 L5.79487179,9.38461538 L10.4615385,9.07692308 C10.4615385,9.74358974 10.2564103,10.4102564 9.94871795,10.974359 C9.28205128,10.8205128 8.51282051,11.025641 8,11.5384615 C7.58974359,11.9487179 7.38461538,12.4615385 7.38461538,13.0769231 C7.38461538,13.2820513 7.43589744,13.4358974 7.43589744,13.6410256 C7.43589744,13.6923077 7.43589744,13.7948718 7.48717949,13.8974359 C7.48717949,13.9487179 7.53846154,13.9487179 7.53846154,14 C7.53846154,14 7.53846154,14 7.58974359,14 C7.69230769,14.2051282 7.84615385,14.4615385 8,14.6153846 C8.41025641,15.025641 8.92307692,15.2307692 9.53846154,15.2307692 C10.1025641,15.2307692 10.7179487,14.974359 11.1282051,14.5641026 C11.9487179,13.7435897 12,12.3076923 11.1794872,11.4871795 C11.0769231,11.3846154 10.8717949,11.3333333 10.7179487,11.2307692 C11.025641,10.6153846 11.2307692,9.8974359 11.2307692,9.02564103 L17.5384615,8.61538462 L37.3846154,28.4615385 L24.9230769,40.974359 L5.02564103,21.1282051 Z M8.1025641,13.1282051 C8.1025641,12.7692308 8.25641026,12.3589744 8.51282051,12.1025641 C8.82051282,11.7948718 9.17948718,11.6923077 9.58974359,11.6923077 C9.12820513,12.2564103 8.61538462,12.7692308 8.1025641,13.1282051 Z M10.3076923,11.8974359 C10.4102564,11.9487179 10.4615385,12 10.5641026,12.1025641 C11.1282051,12.6666667 11.1282051,13.5897436 10.5641026,14.1538462 C10,14.7179487 9.07692308,14.7179487 8.56410256,14.1538462 C8.56410256,14.1538462 8.56410256,14.1538462 8.56410256,14.1538462 C8.46153846,14.0512821 8.41025641,14 8.35897436,13.8974359 C9.07692308,13.4358974 9.79487179,12.7179487 10.3076923,11.8974359 Z" id="Shape"></path>
            </g>
        </g>
    </g>
</svg>