<?xml version="1.0" encoding="UTF-8"?>
<svg width="18px" height="18px" viewBox="0 0 18 18" version="1.1" xmlns="http://www.w3.org/2000/svg" xmlns:xlink="http://www.w3.org/1999/xlink">
    <!-- Generator: Sketch 49 (51002) - http://www.bohemiancoding.com/sketch -->
    <title>telegram-logo</title>
    <desc>Created with Sketch.</desc>
    <defs>
        <linearGradient x1="66.67%" y1="16.67%" x2="41.67%" y2="75%" id="linearGradient-1">
            <stop stop-color="#37AEE2" offset="0%"></stop>
            <stop stop-color="#1E96C8" offset="100%"></stop>
        </linearGradient>
        <linearGradient x1="61.2346759%" y1="43.69%" x2="74.7064382%" y2="80.24%" id="linearGradient-2">
            <stop stop-color="#EFF7FC" offset="0%"></stop>
            <stop stop-color="#FFFFFF" offset="100%"></stop>
        </linearGradient>
    </defs>
    <g id="Page-1" stroke="none" stroke-width="1" fill="none" fill-rule="evenodd">
        <g id="Desktop" transform="translate(-42.000000, -1315.000000)" fill-rule="nonzero">
            <g id="phone" transform="translate(42.000000, 1288.000000)">
                <g id="telegram" transform="translate(0.000000, 24.000000)">
                    <g id="telegram-logo" transform="translate(0.000000, 3.000000)">
                        <circle id="Oval" fill="url(#linearGradient-1)" cx="9" cy="9" r="9"></circle>
                        <path d="M7.24675325,12.8571429 C6.94382338,12.8571429 6.9952987,12.7511892 6.89082078,12.484006 L6,9.76824541 L12.8571429,6" id="Shape" fill="#C8DAEA"></path>
                        <path d="M7.71428571,13.7142857 C7.94805195,13.7142857 8.05133766,13.5989652 8.18181818,13.4621272 L9.42857143,12.1544331 L7.8734026,11.1428571" id="Shape" fill="#A9C9DD"></path>
                        <path d="M7.12226518,10.799453 L10.6164498,13.5975317 C11.0151814,13.8359898 11.3029603,13.7125279 11.4022801,13.1962902 L12.8245925,5.93165444 C12.9702124,5.29886216 12.6020441,5.01185724 12.2205956,5.19956009 L3.86880064,8.6900906 C3.29871242,8.93793071 3.30203608,9.28266084 3.76488549,9.43626579 L5.90814438,10.1613197 L10.8700167,6.76836838 C11.1042557,6.61441101 11.3192391,6.69718179 11.1427885,6.86691864" id="Shape" fill="url(#linearGradient-2)"></path>
                    </g>
                </g>
            </g>
        </g>
    </g>
</svg>